%!PS-Adobe-3.0 EPSF-3.0
%%Creator: cairo 1.14.6 (http://cairographics.org)
%%CreationDate: Mon Mar  6 22:51:36 2017
%%Pages: 1
%%DocumentData: Clean7Bit
%%LanguageLevel: 3
%%BoundingBox: 0 -1 134 77
%%EndComments
%%BeginProlog
save
50 dict begin
/q { gsave } bind def
/Q { grestore } bind def
/cm { 6 array astore concat } bind def
/w { setlinewidth } bind def
/J { setlinecap } bind def
/j { setlinejoin } bind def
/M { setmiterlimit } bind def
/d { setdash } bind def
/m { moveto } bind def
/l { lineto } bind def
/c { curveto } bind def
/h { closepath } bind def
/re { exch dup neg 3 1 roll 5 3 roll moveto 0 rlineto
      0 exch rlineto 0 rlineto closepath } bind def
/S { stroke } bind def
/f { fill } bind def
/f* { eofill } bind def
/n { newpath } bind def
/W { clip } bind def
/W* { eoclip } bind def
/BT { } bind def
/ET { } bind def
/pdfmark where { pop globaldict /?pdfmark /exec load put }
    { globaldict begin /?pdfmark /pop load def /pdfmark
    /cleartomark load def end } ifelse
/BDC { mark 3 1 roll /BDC pdfmark } bind def
/EMC { mark /EMC pdfmark } bind def
/cairo_store_point { /cairo_point_y exch def /cairo_point_x exch def } def
/Tj { show currentpoint cairo_store_point } bind def
/TJ {
  {
    dup
    type /stringtype eq
    { show } { -0.001 mul 0 cairo_font_matrix dtransform rmoveto } ifelse
  } forall
  currentpoint cairo_store_point
} bind def
/cairo_selectfont { cairo_font_matrix aload pop pop pop 0 0 6 array astore
    cairo_font exch selectfont cairo_point_x cairo_point_y moveto } bind def
/Tf { pop /cairo_font exch def /cairo_font_matrix where
      { pop cairo_selectfont } if } bind def
/Td { matrix translate cairo_font_matrix matrix concatmatrix dup
      /cairo_font_matrix exch def dup 4 get exch 5 get cairo_store_point
      /cairo_font where { pop cairo_selectfont } if } bind def
/Tm { 2 copy 8 2 roll 6 array astore /cairo_font_matrix exch def
      cairo_store_point /cairo_font where { pop cairo_selectfont } if } bind def
/g { setgray } bind def
/rg { setrgbcolor } bind def
/d1 { setcachedevice } bind def
%%EndProlog
%%BeginSetup
%%EndSetup
%%Page: 1 1
%%BeginPageSetup
%%PageBoundingBox: 0 -1 134 77
%%EndPageSetup
q 0 -1 134 78 rectclip q
Q q
0 76.8 134 -76.801 re W n
q
0 76.8 134 -77 re W n
[ 0.8 0 0 0.8 -0.00000354687 0.0000028041 ] concat
/DeviceRGB setcolorspace
8 dict dup begin
  /ImageType 1 def
  /Width 168 def
  /Height 96 def
  /Interpolate false def
  /BitsPerComponent 8 def
  /Decode [ 0 1 0 1 0 1 ] def
  /DataSource currentfile /ASCII85Decode filter /FlateDecode filter def
  /ImageMatrix [ 1 0 0 -1 0 96 ] def
end
image
Gb"0VTl._D*(KHnOcU\.$a'O6!^%6L`.:66fj%ka0uVoK2+[j]0<l>X1Fthb=h!X]-JPinJ'
 K^>]Ro2i>f7)<M^1lW,jE(tDRXfsC;8Y-Fe;>SM1WmUXM4RL[sM-uH(HtZ?51@[0+@e*LVp
 sr5^$eG4-SKgm*9-c-G)(eS]U:nG%\*BPMMYnc=D,G]//-2l"]s9]3QJf;)i.<nT\<h^"$l
 rj9mX>VU9'Vec#)drcgQ>.$2\cP;Kf,m2h5BRI&40G:'pXfq$7Q9Qk'S4-SKgm*9-c-G)(e
 S]U:nG%\D?I4uM&#M/56]`OVJk@N5pC/rg?G?0:F]X-mH]B+T#9ns(OhsZn7VpfAYrLW3JK
 *#1.QUuheF`n;8mS%e:Z9+9+RI&40G:'pXfq$7Q9Qk'S4-SKgm*9-c-G)'>mJco8UY"hf.Z
 dE';eDTFAl[Z8?PchhqmnUYb6*fdajZH3ZRgIl^/urOn+WPI/f,=:++I5CjSrqDs.d/DSDB
 U>4*,RXcL/p0SN4;<B6WM)cCE^YZTE5OB?oqhfpt.81M:po)Knp*A2n[Np@2ngH?Y'Be,=A
 L]dfuPq-;HUOsEV^o_6$"S^p2c~>
Q
Q Q
showpage
%%Trailer
end restore
%%EOF
